Peso de Bezerros
…
Como podemos começar a pensar em modelos a partir dessas observações?

6. Transformações e Medidas Relativas

Como calcular o crescimento relativo (percentual) de cada animal ao longo do período? Considere como referência o peso incial.

dados.longer |> 
  group_by(ind) |> 
  summarise(r1 = (`Peso(Kg)`/`Peso(Kg)`[1])-1)

# A tibble: 120 × 2
# Groups:   ind [15]
     ind    r1
   <dbl> <dbl>
 1     1 0    
 2     1 0.209
 3     1 0.388
 4     1 0.625
 5     1 0.811
 6     1 1.01 
 7     1 1.30 
 8     1 1.43 
 9     2 0    
10     2 0.134
# ℹ 110 more rows

Ao dividir o peso de cada animal pelo peso médio da semana (crescimento relativo à média), que tipo de informação podemos extrair sobre os animais?

dados.longer |> 
  group_by(Semanas) |> 
  summarise(media_semana = mean(`Peso(Kg)`),
            r2 = `Peso(Kg)`/media_semana)

# A tibble: 120 × 3
# Groups:   Semanas [8]
   Semanas media_semana    r2
   <chr>          <dbl> <dbl>
 1 12              69.6 0.777
 2 12              69.6 1.32 
 3 12              69.6 0.922
 4 12              69.6 1.01 
 5 12              69.6 0.981
 6 12              69.6 0.631
 7 12              69.6 1.26 
 8 12              69.6 1.07 
 9 12              69.6 0.726
10 12              69.6 1.31 
# ℹ 110 more rows
…
Outras medidas

dados.longer |> 
  group_by(ind) |> 
  summarise(d = `Peso(Kg)`- `Peso(Kg)`[1])

# A tibble: 120 × 2
# Groups:   ind [15]
     ind     d
   <dbl> <dbl>
 1     1   0  
 2     1  11.3
 3     1  21  
 4     1  33.8
 5     1  43.9
 6     1  54.6
 7     1  70.1
 8     1  77.2
 9     2   0  
10     2  12.3
# ℹ 110 more rows

library(broom)
dados.longer |>
  group_by(ind) |>
  do(tidy(lm(`Peso(Kg)` ~ as.numeric(Semanas), data = .)))

# A tibble: 30 × 6
# Groups:   ind [15]
     ind term                estimate std.error statistic  p.value
   <dbl> <chr>                  <dbl>     <dbl>     <dbl>    <dbl>
 1     1 (Intercept)           -13.8     2.32       -5.97 9.91e- 4
 2     1 as.numeric(Semanas)     5.63    0.118      47.5  5.84e- 9
 3     2 (Intercept)            19.6     3.48        5.62 1.36e- 3
 4     2 as.numeric(Semanas)     6.17    0.178      34.6  3.89e- 8
 5     3 (Intercept)           -10.0     2.87       -3.50 1.29e- 2
 6     3 as.numeric(Semanas)     6.37    0.147      43.3  1.01e- 8
 7     4 (Intercept)            12.2     5.57        2.20 7.04e- 2
 8     4 as.numeric(Semanas)     4.83    0.285      17.0  2.70e- 6
 9     5 (Intercept)            12.5     1.39        8.99 1.06e- 4
10     5 as.numeric(Semanas)     4.60    0.0714     64.4  9.42e-10
# ℹ 20 more rows

Como a regressão linear assume relação linear para toda a reta, mas temos dados entre semanas 12 e 26, o intercepto não faz sentido fora dessa faixa.

\(\beta_1\) é a inclinação, ou seja, taxa de crescimento em Kg/semana

Podemos ter intercepto com interpretação mais realista, nesse caso é preciso centralizar o tempo. Por exemplo, redefinir a semana inicial como zero:

dados.longer |>
  mutate(Semana_c = as.numeric(Semanas) - 12) |> 
  group_by(ind) |>
  do(tidy(lm(`Peso(Kg)` ~ Semana_c, data = .)))

# A tibble: 30 × 6
# Groups:   ind [15]
     ind term        estimate std.error statistic  p.value
   <dbl> <chr>          <dbl>     <dbl>     <dbl>    <dbl>
 1     1 (Intercept)    53.7     0.991       54.2 2.66e- 9
 2     1 Semana_c        5.63    0.118       47.5 5.84e- 9
 3     2 (Intercept)    93.6     1.49        62.7 1.10e- 9
 4     2 Semana_c        6.17    0.178       34.6 3.89e- 8
 5     3 (Intercept)    66.4     1.23        54.0 2.71e- 9
 6     3 Semana_c        6.37    0.147       43.3 1.01e- 8
 7     4 (Intercept)    70.2     2.39        29.4 1.02e- 7
 8     4 Semana_c        4.83    0.285       17.0 2.70e- 6
 9     5 (Intercept)    67.7     0.597      113.  3.17e-11
10     5 Semana_c        4.60    0.0714      64.4 9.42e-10
# ℹ 20 more rows
…
